proyecto2/FSM/verificacion_fsm.vcd
$date
	Wed Nov 24 23:38:28 2021
$end
$version
	Icarus Verilog
$end
$timescale
	1us
$end
$scope module BUF $end
$var wire 1 ! A $end
$var wire 1 " Y $end
$upscope $end
$scope module BancoPruebas $end
$var wire 3 # th_fifos_almost_full_synth [2:0] $end
$var wire 3 $ th_fifos_almost_full [2:0] $end
$var wire 3 % th_fifos_almost_empty_synth [2:0] $end
$var wire 3 & th_fifos_almost_empty [2:0] $end
$var wire 3 ' th_almost_full [2:0] $end
$var wire 3 ( th_almost_empty [2:0] $end
$var wire 1 ) reset_L $end
$var wire 1 * init $end
$var wire 1 + idle_synth $end
$var wire 1 , idle $end
$var wire 9 - fifos_empty [8:0] $end
$var wire 1 . clk $end
$scope module fsm_cond $end
$var wire 3 / th_almost_full [2:0] $end
$var wire 3 0 th_almost_empty [2:0] $end
$var wire 1 ) reset_L $end
$var wire 1 * init $end
$var wire 9 1 fifos_empty [8:0] $end
$var wire 1 . clk $end
$var reg 1 , idle $end
$var reg 3 2 mem_th_fifos_almost_empty [2:0] $end
$var reg 3 3 mem_th_fifos_almost_full [2:0] $end
$var reg 4 4 nxt_state [3:0] $end
$var reg 4 5 state [3:0] $end
$var reg 3 6 th_fifos_almost_empty [2:0] $end
$var reg 3 7 th_fifos_almost_full [2:0] $end
$upscope $end
$scope module fsm_estruct $end
$var wire 3 8 mem_th_fifos_almost_empty_synth [2:0] $end
$var wire 3 9 mem_th_fifos_almost_full_synth [2:0] $end
$var wire 3 : th_fifos_almost_full_synth [2:0] $end
$var wire 3 ; th_fifos_almost_empty_synth [2:0] $end
$var wire 3 < th_almost_full [2:0] $end
$var wire 3 = th_almost_empty [2:0] $end
$var wire 4 > state [3:0] $end
$var wire 1 ) reset_L $end
$var wire 1 * init $end
$var wire 1 + idle_synth $end
$var wire 9 ? fifos_empty [8:0] $end
$var wire 1 . clk $end
$var wire 1 @ _052_ $end
$var wire 1 A _051_ $end
$var wire 1 B _050_ $end
$var wire 1 C _049_ $end
$var wire 1 D _048_ $end
$var wire 1 E _047_ $end
$var wire 1 F _046_ $end
$var wire 1 G _045_ $end
$var wire 1 H _044_ $end
$var wire 1 I _043_ $end
$var wire 1 J _042_ $end
$var wire 1 K _041_ $end
$var wire 1 L _040_ $end
$var wire 1 M _039_ $end
$var wire 1 N _038_ $end
$var wire 1 O _037_ $end
$var wire 1 P _036_ $end
$var wire 1 Q _035_ $end
$var wire 1 R _034_ $end
$var wire 1 S _033_ $end
$var wire 1 T _032_ $end
$var wire 1 U _031_ $end
$var wire 1 V _030_ $end
$var wire 1 W _029_ $end
$var wire 1 X _028_ $end
$var wire 1 Y _027_ $end
$var wire 1 Z _026_ $end
$var wire 1 [ _025_ $end
$var wire 1 \ _024_ $end
$var wire 1 ] _023_ $end
$var wire 1 ^ _022_ $end
$var wire 1 _ _021_ $end
$var wire 1 ` _020_ $end
$var wire 1 a _019_ $end
$var wire 1 b _018_ $end
$var wire 1 c _017_ $end
$var wire 1 d _016_ $end
$var wire 1 e _015_ $end
$var wire 1 f _014_ $end
$var wire 1 g _013_ $end
$var wire 1 h _012_ $end
$var wire 1 i _011_ $end
$var wire 1 j _010_ $end
$var wire 1 k _009_ $end
$var wire 1 l _008_ $end
$var wire 1 m _007_ $end
$var wire 1 n _006_ $end
$var wire 1 o _005_ $end
$var wire 1 p _004_ $end
$var wire 1 q _003_ $end
$var wire 1 r _002_ $end
$var wire 3 s _001_ [2:0] $end
$var wire 3 t _000_ [2:0] $end
$scope module _053_ $end
$var wire 1 o Y $end
$var wire 1 * A $end
$upscope $end
$scope module _054_ $end
$var wire 1 u A $end
$var wire 1 n Y $end
$upscope $end
$scope module _055_ $end
$var wire 1 v A $end
$var wire 1 m Y $end
$upscope $end
$scope module _056_ $end
$var wire 1 w A $end
$var wire 1 l Y $end
$upscope $end
$scope module _057_ $end
$var wire 1 O Y $end
$var wire 1 ) A $end
$upscope $end
$scope module _058_ $end
$var wire 1 x A $end
$var wire 1 k Y $end
$upscope $end
$scope module _059_ $end
$var wire 1 y A $end
$var wire 1 j Y $end
$upscope $end
$scope module _060_ $end
$var wire 1 z A $end
$var wire 1 i Y $end
$upscope $end
$scope module _061_ $end
$var wire 1 { A $end
$var wire 1 h Y $end
$upscope $end
$scope module _062_ $end
$var wire 1 | A $end
$var wire 1 g Y $end
$upscope $end
$scope module _063_ $end
$var wire 1 } A $end
$var wire 1 ~ B $end
$var wire 1 f Y $end
$upscope $end
$scope module _064_ $end
$var wire 1 o A $end
$var wire 1 f B $end
$var wire 1 e Y $end
$upscope $end
$scope module _065_ $end
$var wire 1 !" A $end
$var wire 1 e B $end
$var wire 1 d Y $end
$upscope $end
$scope module _066_ $end
$var wire 1 O A $end
$var wire 1 d B $end
$var wire 1 r Y $end
$upscope $end
$scope module _067_ $end
$var wire 1 O B $end
$var wire 1 c Y $end
$var wire 1 * A $end
$upscope $end
$scope module _068_ $end
$var wire 1 "" A $end
$var wire 1 c B $end
$var wire 1 b Y $end
$upscope $end
$scope module _069_ $end
$var wire 1 o A $end
$var wire 1 #" B $end
$var wire 1 a Y $end
$upscope $end
$scope module _070_ $end
$var wire 1 g A $end
$var wire 1 a B $end
$var wire 1 ` Y $end
$upscope $end
$scope module _071_ $end
$var wire 1 $" B $end
$var wire 1 _ Y $end
$var wire 1 ) A $end
$upscope $end
$scope module _072_ $end
$var wire 1 %" A $end
$var wire 1 c B $end
$var wire 1 ^ Y $end
$upscope $end
$scope module _073_ $end
$var wire 1 _ A $end
$var wire 1 ^ B $end
$var wire 1 ] Y $end
$upscope $end
$scope module _074_ $end
$var wire 1 ` B $end
$var wire 1 \ Y $end
$var wire 1 ) A $end
$upscope $end
$scope module _075_ $end
$var wire 1 &" A $end
$var wire 1 '" B $end
$var wire 1 [ Y $end
$upscope $end
$scope module _076_ $end
$var wire 1 h A $end
$var wire 1 [ B $end
$var wire 1 Z Y $end
$upscope $end
$scope module _077_ $end
$var wire 1 (" A $end
$var wire 1 )" B $end
$var wire 1 Y Y $end
$upscope $end
$scope module _078_ $end
$var wire 1 *" A $end
$var wire 1 +" B $end
$var wire 1 X Y $end
$upscope $end
$scope module _079_ $end
$var wire 1 ," A $end
$var wire 1 -" B $end
$var wire 1 W Y $end
$upscope $end
$scope module _080_ $end
$var wire 1 Y A $end
$var wire 1 W B $end
$var wire 1 V Y $end
$upscope $end
$scope module _081_ $end
$var wire 1 Z A $end
$var wire 1 V B $end
$var wire 1 U Y $end
$upscope $end
$scope module _082_ $end
$var wire 1 X A $end
$var wire 1 U B $end
$var wire 1 T Y $end
$upscope $end
$scope module _083_ $end
$var wire 1 ] A $end
$var wire 1 T B $end
$var wire 1 S Y $end
$upscope $end
$scope module _084_ $end
$var wire 1 b A $end
$var wire 1 S B $end
$var wire 1 q Y $end
$upscope $end
$scope module _085_ $end
$var wire 1 \ A $end
$var wire 1 T B $end
$var wire 1 p Y $end
$upscope $end
$scope module _086_ $end
$var wire 1 ." A $end
$var wire 1 /" B $end
$var wire 1 R Y $end
$upscope $end
$scope module _087_ $end
$var wire 1 0" A $end
$var wire 1 n B $end
$var wire 1 Q Y $end
$upscope $end
$scope module _088_ $end
$var wire 1 O A $end
$var wire 1 Q B $end
$var wire 1 P Y $end
$upscope $end
$scope module _089_ $end
$var wire 1 R A $end
$var wire 1 P B $end
$var wire 1 1" Y $end
$upscope $end
$scope module _090_ $end
$var wire 1 2" A $end
$var wire 1 3" B $end
$var wire 1 N Y $end
$upscope $end
$scope module _091_ $end
$var wire 1 4" A $end
$var wire 1 m B $end
$var wire 1 M Y $end
$upscope $end
$scope module _092_ $end
$var wire 1 M B $end
$var wire 1 L Y $end
$var wire 1 ) A $end
$upscope $end
$scope module _093_ $end
$var wire 1 N A $end
$var wire 1 L B $end
$var wire 1 5" Y $end
$upscope $end
$scope module _094_ $end
$var wire 1 6" A $end
$var wire 1 7" B $end
$var wire 1 K Y $end
$upscope $end
$scope module _095_ $end
$var wire 1 8" A $end
$var wire 1 l B $end
$var wire 1 J Y $end
$upscope $end
$scope module _096_ $end
$var wire 1 J B $end
$var wire 1 I Y $end
$var wire 1 ) A $end
$upscope $end
$scope module _097_ $end
$var wire 1 K A $end
$var wire 1 I B $end
$var wire 1 9" Y $end
$upscope $end
$scope module _098_ $end
$var wire 1 :" A $end
$var wire 1 ;" B $end
$var wire 1 H Y $end
$upscope $end
$scope module _099_ $end
$var wire 1 <" A $end
$var wire 1 k B $end
$var wire 1 G Y $end
$upscope $end
$scope module _100_ $end
$var wire 1 O A $end
$var wire 1 G B $end
$var wire 1 F Y $end
$upscope $end
$scope module _101_ $end
$var wire 1 H A $end
$var wire 1 F B $end
$var wire 1 =" Y $end
$upscope $end
$scope module _102_ $end
$var wire 1 >" A $end
$var wire 1 ?" B $end
$var wire 1 E Y $end
$upscope $end
$scope module _103_ $end
$var wire 1 @" A $end
$var wire 1 j B $end
$var wire 1 D Y $end
$upscope $end
$scope module _104_ $end
$var wire 1 O A $end
$var wire 1 D B $end
$var wire 1 C Y $end
$upscope $end
$scope module _105_ $end
$var wire 1 E A $end
$var wire 1 C B $end
$var wire 1 A" Y $end
$upscope $end
$scope module _106_ $end
$var wire 1 B" A $end
$var wire 1 C" B $end
$var wire 1 B Y $end
$upscope $end
$scope module _107_ $end
$var wire 1 D" A $end
$var wire 1 i B $end
$var wire 1 A Y $end
$upscope $end
$scope module _108_ $end
$var wire 1 O A $end
$var wire 1 A B $end
$var wire 1 @ Y $end
$upscope $end
$scope module _109_ $end
$var wire 1 B A $end
$var wire 1 @ B $end
$var wire 1 E" Y $end
$upscope $end
$scope module _110_ $end
$var wire 1 O D $end
$var wire 1 . C $end
$var reg 1 F" Q $end
$upscope $end
$scope module _111_ $end
$var wire 1 p D $end
$var wire 1 . C $end
$var reg 1 G" Q $end
$upscope $end
$scope module _112_ $end
$var wire 1 q D $end
$var wire 1 . C $end
$var reg 1 H" Q $end
$upscope $end
$scope module _113_ $end
$var wire 1 r D $end
$var wire 1 . C $end
$var reg 1 I" Q $end
$upscope $end
$scope module _114_ $end
$var wire 1 J" D $end
$var wire 1 . C $end
$var reg 1 K" Q $end
$upscope $end
$scope module _115_ $end
$var wire 1 L" D $end
$var wire 1 . C $end
$var reg 1 M" Q $end
$upscope $end
$scope module _116_ $end
$var wire 1 N" D $end
$var wire 1 . C $end
$var reg 1 O" Q $end
$upscope $end
$scope module _117_ $end
$var wire 1 P" D $end
$var wire 1 . C $end
$var reg 1 Q" Q $end
$upscope $end
$scope module _118_ $end
$var wire 1 R" D $end
$var wire 1 . C $end
$var reg 1 S" Q $end
$upscope $end
$scope module _119_ $end
$var wire 1 T" D $end
$var wire 1 . C $end
$var reg 1 U" Q $end
$upscope $end
$upscope $end
$scope module probador $end
$var wire 1 , idle $end
$var wire 1 + idle_synth $end
$var wire 3 V" th_fifos_almost_empty [2:0] $end
$var wire 3 W" th_fifos_almost_empty_synth [2:0] $end
$var wire 3 X" th_fifos_almost_full [2:0] $end
$var wire 3 Y" th_fifos_almost_full_synth [2:0] $end
$var reg 1 . clk $end
$var reg 9 Z" fifos_empty [8:0] $end
$var reg 1 * init $end
$var reg 1 ) reset_L $end
$var reg 3 [" th_almost_empty [2:0] $end
$var reg 3 \" th_almost_full [2:0] $end
$upscope $end
$upscope $end
$scope module DFFSR $end
$var wire 1 ]" C $end
$var wire 1 ^" D $end
$var wire 1 _" R $end
$var wire 1 `" S $end
$var reg 1 a" Q $end
$upscope $end
$enddefinitions $end
#0
$dumpvars
xa"
z`"
z_"
z^"
z]"
b111 \"
b1 ["
b111111111 Z"
bx Y"
bx X"
bx W"
bx V"
xU"
0T"
xS"
0R"
xQ"
1P"
xO"
1N"
xM"
1L"
xK"
1J"
xI"
xH"
xG"
xF"
1E"
xD"
1C"
xB"
1A"
x@"
1?"
x>"
1="
x<"
1;"
x:"
09"
x8"
x7"
x6"
05"
x4"
x3"
x2"
11"
x0"
1/"
x."
1-"
1,"
1+"
1*"
1)"
1("
1'"
1&"
x%"
x$"
x#"
x""
x!"
x~
x}
x|
1{
xz
xy
xx
0w
0v
xu
b1 t
b111 s
0r
0q
0p
1o
xn
1m
1l
xk
xj
xi
0h
xg
xf
0e
xd
0c
1b
xa
x`
1_
1^
0]
1\
0[
1Z
0Y
0X
0W
1V
0U
1T
1S
xR
xQ
0P
1O
xN
xM
1L
xK
xJ
1I
xH
xG
0F
xE
xD
0C
xB
xA
0@
b111111111 ?
bx >
b1 =
b111 <
bx ;
bx :
b111 9
b1 8
bx 7
bx 6
bx 5
bx 4
b0 3
b0 2
b111111111 1
b1 0
b111 /
0.
b111111111 -
0,
x+
0*
0)
b1 (
b111 '
bx &
bx %
bx $
bx #
z"
z!
$end
#200
0`
0d
1a
1A
1B
1D
1E
1G
1H
1J
1M
1Q
1R
1f
1N
1K
1g
0k
0j
0i
0n
b0 4
1!"
0$"
0|
0+
0%"
0#"
0~
0D"
0B"
0@"
0>"
0<"
0:"
08"
06"
04"
02"
00"
0."
0""
0}
1x
1y
1z
1u
03"
07"
b111 $
b111 7
b111 X"
b1 &
b1 6
b1 V"
b0 5
1F"
0G"
0H"
b1 >
0I"
1K"
1M"
b111 #
b111 :
b111 Y"
1O"
1Q"
0S"
b1 %
b1 ;
b1 W"
0U"
1.
#400
0.
#600
1r
1c
0I
0L
0O
b1 4
1)
1.
#800
0.
#1000
0L"
b101 s
0A"
0T"
1R"
0r
1@
1C
1F
1I
09"
b11 t
15"
1P
1q
1d
0A
0B
0D
0G
0H
0J
0K
0N
0Q
0R
0b
0f
b11 2
b101 3
0!"
1D"
1B"
1@"
1>"
1<"
1:"
18"
16"
14"
12"
10"
1."
1""
1}
b1 5
0F"
b1000 >
1I"
0m
0?"
1v
b10 4
b101 9
b101 '
b101 /
b101 <
b101 \"
b11 8
b11 (
b11 0
b11 =
b11 ["
1.
#1200
0.
#1400
0L"
0A"
0S
0\
1N"
1J"
1P"
0@
1E"
1C
0F
b101 s
1="
0I
0P
b11 t
11"
1q
1]
1`
1A
1B
0D
1G
1H
1J
1K
1Q
1R
1b
0^
0a
1j
13"
0y
0D"
0B"
0@"
0>"
0<"
0:"
08"
06"
04"
02"
00"
0."
0""
0}
1+
1%"
1#"
1~
1,
b0 3
b0 2
b11 %
b11 ;
b11 W"
1S"
b101 #
b101 :
b101 Y"
0M"
0I"
b100 >
1H"
b101 $
b101 7
b101 X"
b11 &
b11 6
b11 V"
b10 5
1.
#1600
0.
#1800
1.
#2000
0.
#2200
0;"
0/"
1,
b100 9
b100 '
b100 /
b100 <
b100 \"
b10 8
b10 (
b10 0
b10 =
b10 ["
1.
#2400
0.
#2600
1.
#2800
0.
#3000
1.
#3200
0.
#3400
0q
1S
1r
1\
0]
0d
0`
1^
1e
1a
0c
0o
b1 4
1,
1*
1.
#3600
0.
#3800
0J"
0P"
b100 s
0="
01"
0T"
1@
1F
1I
b10 t
09"
1P
0A
0B
0G
0J
0K
0Q
1D"
1B"
1@"
1>"
1<"
1:"
18"
16"
14"
12"
10"
1."
1""
1}
0+
0%"
0#"
0~
b10 2
b100 3
0,
1I"
b1000 >
0H"
b1 5
1.
#4000
0.
#4200
1k
1n
0x
0u
b100 $
b100 7
b100 X"
b10 &
b10 6
b10 V"
b100 #
b100 :
b100 Y"
0K"
b10 %
b10 ;
b10 W"
0Q"
0r
1q
1d
0b
0e
1c
1o
b10 4
b100 3
b10 2
0*
1.
#4400
0.
#4600
0S
0\
1N"
0@
b100 s
1E"
0I
1q
1]
1`
1A
1B
1J
1K
1b
0^
0a
0D"
0B"
0@"
0>"
0<"
0:"
08"
06"
04"
02"
00"
0."
0""
0}
1+
1%"
1#"
1~
1,
b0 3
b0 2
0I"
b100 >
1H"
b10 5
1.
#4800
0.
#5000
1.
#5200
0.
#5400
1.
#5600
0.
#5800
1.
#6000
0.
#6200
0q
1S
0]
1P"
1J"
1L"
0R"
1^
11"
1="
b111 s
1A"
b1 t
05"
0c
0P
0F
0C
1I
1L
1\
1O
b0 4
1,
0)
1.
#6400
0.
#6600
0`
1G
1D
1Q
0d
1a
1f
1N
0k
0j
0n
0,
1!"
0+
0%"
0#"
0~
1x
1y
1u
03"
b111 $
b111 7
b111 X"
b1 &
b1 6
b1 V"
b0 5
1F"
b1 >
0H"
1K"
b111 #
b111 :
b111 Y"
1M"
1Q"
b1 %
b1 ;
b1 W"
0S"
1.
#6800
0.
#7000
1.
#7200
0.
#7400
1.
#7600
0.
#7800
1r
1c
0I
0L
0O
b1 4
1)
1.
#8000
0.
#8200
0L"
0J"
0P"
0A"
b100 s
0="
01"
0T"
1R"
0r
1@
1C
1F
1I
09"
b10 t
15"
1P
1q
1d
0A
0B
0D
0G
0J
0K
0N
0Q
0b
0f
b10 4
b10 2
b100 3
0!"
1D"
1B"
1@"
1>"
1<"
1:"
18"
16"
14"
12"
10"
1."
1""
1}
b1 5
0F"
b1000 >
1I"
1.
#8400
0.
#8600
0L"
0J"
0P"
0A"
0="
b10 t
01"
0S
0\
1N"
0@
b100 s
1E"
1C
1F
0I
1P
1q
1]
1`
1A
1B
0D
0G
1J
1K
0Q
1b
0^
0a
1n
1j
1k
13"
0u
0y
0x
0D"
0B"
0@"
0>"
0<"
0:"
08"
06"
04"
02"
00"
0."
0""
0}
1+
1%"
1#"
1~
1,
b0 3
b0 2
1S"
b10 %
b10 ;
b10 W"
0Q"
0M"
b100 #
b100 :
b100 Y"
0K"
0I"
b100 >
1H"
b100 $
b100 7
b100 X"
b10 &
b10 6
b10 V"
b10 5
1.
#8800
0.
#9000
1.
#9200
0.
#9400
1m
0C"
1?"
1;"
1/"
0v
1,
b11 9
b11 '
b11 /
b11 <
b11 \"
b1 8
b1 (
b1 0
b1 =
b1 ["
1.
#9600
0.
#9800
0q
1S
1p
1U
0T
0V
0Z
1W
1X
1Y
1[
1h
0-"
0,"
0+"
0*"
0)"
0("
0'"
0&"
0{
b100 4
1,
b0 -
b0 1
b0 ?
b0 Z"
1.
#10000
0.
#10200
1^
1a
1f
0_
0g
0+
0%"
0#"
0~
1$"
1|
0,
0H"
b10 >
1G"
b100 5
1.
#10400
0.
#10600
1.
#10800
0.
#11000
1.
#11200
0.
#11400
1C"
0;"
b110 9
b110 '
b110 /
b110 <
b110 \"
1.
#11600
0.
#11800
1q
0S
0p
1T
0U
1V
1Z
0W
0X
0Y
0[
0h
1-"
1,"
1+"
1*"
1)"
1("
1'"
1&"
1{
b10 4
b111111111 -
b111111111 1
b111111111 ?
b111111111 Z"
1.
#12000
0.
#12200
0q
1r
1S
0d
1\
0]
1e
0`
1_
0f
1g
1,
0$"
0|
1+
1%"
1#"
1~
b10 5
0G"
b100 >
1H"
0c
0o
b1 4
1*
1.
#12400
0.
#12600
1L"
1J"
0T"
1@
1A"
b111 s
1="
1I
b10 t
09"
0A
0B
0E
0H
0J
0K
1D"
1B"
1@"
1>"
1<"
1:"
18"
16"
14"
12"
10"
1."
1""
1}
0+
0%"
0#"
0~
b10 2
b111 3
1I"
b1000 >
0H"
b1 5
0m
1;"
0/"
1v
b1 4
0,
b111 9
b111 '
b111 /
b111 <
b111 \"
b10 8
b10 (
b10 0
b10 =
b10 ["
1.
#12800
0.
#13000
0k
0j
1x
1y
b111 $
b111 7
b111 X"
1K"
b111 #
b111 :
b111 Y"
1M"
1.
