proyecto2/Arbitro2/verificacion_arbitro2.vcd
$date
	Fri Nov 26 19:07:43 2021
$end
$version
	Icarus Verilog
$end
$timescale
	1us
$end
$scope module BUF $end
$var wire 1 ! A $end
$var wire 1 " Y $end
$upscope $end
$scope module BancoPruebas $end
$var wire 1 # write $end
$var wire 1 $ valid_entrada $end
$var wire 3 % th_fifos_almost_full [2:0] $end
$var wire 3 & th_fifos_almost_empty [2:0] $end
$var wire 1 ' reset_L $end
$var wire 1 ( push3_synth $end
$var wire 1 ) push3 $end
$var wire 1 * push2_synth $end
$var wire 1 + push2 $end
$var wire 1 , push1_synth $end
$var wire 1 - push1 $end
$var wire 1 . push0_synth $end
$var wire 1 / push0 $end
$var wire 1 0 pop_synth $end
$var wire 1 1 pop $end
$var wire 1 2 fifo_empty $end
$var wire 12 3 fifo_data_out [11:0] $end
$var wire 1 4 fifo3_almost_full $end
$var wire 1 5 fifo2_almost_full $end
$var wire 1 6 fifo1_almost_full $end
$var wire 1 7 fifo0_almost_full $end
$var wire 12 8 data_out_synth [11:0] $end
$var wire 12 9 data_out [11:0] $end
$var wire 12 : data_in [11:0] $end
$var wire 5 ; cont4_synth [4:0] $end
$var wire 5 < cont4 [4:0] $end
$var wire 1 = clk $end
$scope module FIFO_0_salida $end
$var wire 1 > read $end
$var wire 1 / write $end
$var wire 3 ? th_fifos_almost_full [2:0] $end
$var wire 3 @ th_fifos_almost_empty [2:0] $end
$var wire 1 ' reset_L $end
$var wire 12 A data_out [11:0] $end
$var wire 12 B data_in [11:0] $end
$var wire 1 = clk $end
$var reg 1 C almost_empty $end
$var reg 1 7 almost_full $end
$var reg 3 D count [2:0] $end
$var reg 12 E fifo_data_out [11:0] $end
$var reg 1 F fifo_empty $end
$var reg 1 G fifo_error $end
$var reg 1 H fifo_full $end
$var reg 3 I ptr_read [2:0] $end
$var reg 3 J ptr_write [2:0] $end
$var reg 1 K system_pause $end
$var reg 1 L valid $end
$scope module mem $end
$var wire 3 M ptr_read [2:0] $end
$var wire 3 N ptr_write [2:0] $end
$var wire 1 > read $end
$var wire 1 / write $end
$var wire 1 ' reset_L $end
$var wire 12 O data_in [11:0] $end
$var wire 1 = clk $end
$var reg 12 P data_out [11:0] $end
$var integer 32 Q i [31:0] $end
$upscope $end
$upscope $end
$scope module FIFO_1_salida $end
$var wire 1 R read $end
$var wire 1 - write $end
$var wire 3 S th_fifos_almost_full [2:0] $end
$var wire 3 T th_fifos_almost_empty [2:0] $end
$var wire 1 ' reset_L $end
$var wire 12 U data_out [11:0] $end
$var wire 12 V data_in [11:0] $end
$var wire 1 = clk $end
$var reg 1 W almost_empty $end
$var reg 1 6 almost_full $end
$var reg 3 X count [2:0] $end
$var reg 12 Y fifo_data_out [11:0] $end
$var reg 1 Z fifo_empty $end
$var reg 1 [ fifo_error $end
$var reg 1 \ fifo_full $end
$var reg 3 ] ptr_read [2:0] $end
$var reg 3 ^ ptr_write [2:0] $end
$var reg 1 _ system_pause $end
$var reg 1 ` valid $end
$scope module mem $end
$var wire 3 a ptr_read [2:0] $end
$var wire 3 b ptr_write [2:0] $end
$var wire 1 R read $end
$var wire 1 - write $end
$var wire 1 ' reset_L $end
$var wire 12 c data_in [11:0] $end
$var wire 1 = clk $end
$var reg 12 d data_out [11:0] $end
$var integer 32 e i [31:0] $end
$upscope $end
$upscope $end
$scope module FIFO_2_salida $end
$var wire 1 f read $end
$var wire 1 + write $end
$var wire 3 g th_fifos_almost_full [2:0] $end
$var wire 3 h th_fifos_almost_empty [2:0] $end
$var wire 1 ' reset_L $end
$var wire 12 i data_out [11:0] $end
$var wire 12 j data_in [11:0] $end
$var wire 1 = clk $end
$var reg 1 k almost_empty $end
$var reg 1 5 almost_full $end
$var reg 3 l count [2:0] $end
$var reg 12 m fifo_data_out [11:0] $end
$var reg 1 n fifo_empty $end
$var reg 1 o fifo_error $end
$var reg 1 p fifo_full $end
$var reg 3 q ptr_read [2:0] $end
$var reg 3 r ptr_write [2:0] $end
$var reg 1 s system_pause $end
$var reg 1 t valid $end
$scope module mem $end
$var wire 3 u ptr_read [2:0] $end
$var wire 3 v ptr_write [2:0] $end
$var wire 1 f read $end
$var wire 1 + write $end
$var wire 1 ' reset_L $end
$var wire 12 w data_in [11:0] $end
$var wire 1 = clk $end
$var reg 12 x data_out [11:0] $end
$var integer 32 y i [31:0] $end
$upscope $end
$upscope $end
$scope module FIFO_3_salida $end
$var wire 1 z read $end
$var wire 1 ) write $end
$var wire 3 { th_fifos_almost_full [2:0] $end
$var wire 3 | th_fifos_almost_empty [2:0] $end
$var wire 1 ' reset_L $end
$var wire 12 } data_out [11:0] $end
$var wire 12 ~ data_in [11:0] $end
$var wire 1 = clk $end
$var reg 1 !" almost_empty $end
$var reg 1 4 almost_full $end
$var reg 3 "" count [2:0] $end
$var reg 12 #" fifo_data_out [11:0] $end
$var reg 1 $" fifo_empty $end
$var reg 1 %" fifo_error $end
$var reg 1 &" fifo_full $end
$var reg 3 '" ptr_read [2:0] $end
$var reg 3 (" ptr_write [2:0] $end
$var reg 1 )" system_pause $end
$var reg 1 *" valid $end
$scope module mem $end
$var wire 3 +" ptr_read [2:0] $end
$var wire 3 ," ptr_write [2:0] $end
$var wire 1 z read $end
$var wire 1 ) write $end
$var wire 1 ' reset_L $end
$var wire 12 -" data_in [11:0] $end
$var wire 1 = clk $end
$var reg 12 ." data_out [11:0] $end
$var integer 32 /" i [31:0] $end
$upscope $end
$upscope $end
$scope module FIFO_entrada $end
$var wire 1 # write $end
$var wire 3 0" th_fifos_almost_full [2:0] $end
$var wire 3 1" th_fifos_almost_empty [2:0] $end
$var wire 1 ' reset_L $end
$var wire 1 1 read $end
$var wire 12 2" data_out [11:0] $end
$var wire 12 3" data_in [11:0] $end
$var wire 1 = clk $end
$var reg 1 4" almost_empty $end
$var reg 1 5" almost_full $end
$var reg 3 6" count [2:0] $end
$var reg 12 7" fifo_data_out [11:0] $end
$var reg 1 2 fifo_empty $end
$var reg 1 8" fifo_error $end
$var reg 1 9" fifo_full $end
$var reg 3 :" ptr_read [2:0] $end
$var reg 3 ;" ptr_write [2:0] $end
$var reg 1 <" system_pause $end
$var reg 1 $ valid $end
$scope module mem $end
$var wire 3 =" ptr_read [2:0] $end
$var wire 3 >" ptr_write [2:0] $end
$var wire 1 # write $end
$var wire 1 ' reset_L $end
$var wire 1 1 read $end
$var wire 12 ?" data_in [11:0] $end
$var wire 1 = clk $end
$var reg 12 @" data_out [11:0] $end
$var integer 32 A" i [31:0] $end
$upscope $end
$upscope $end
$scope module arbitro2_cond $end
$var wire 12 B" data_in [11:0] $end
$var wire 1 7 fifo0_almost_full $end
$var wire 1 6 fifo1_almost_full $end
$var wire 1 5 fifo2_almost_full $end
$var wire 1 4 fifo3_almost_full $end
$var wire 1 2 fifo_empty $end
$var wire 1 $ valid $end
$var wire 1 ' reset_L $end
$var wire 1 = clk $end
$var reg 3 C" clase [2:0] $end
$var reg 5 D" cont4 [4:0] $end
$var reg 12 E" data_out [11:0] $end
$var reg 4 F" fifos_almost_full [3:0] $end
$var reg 1 1 pop $end
$var reg 1 / push0 $end
$var reg 1 - push1 $end
$var reg 1 + push2 $end
$var reg 1 ) push3 $end
$upscope $end
$scope module arbitro2_estruct $end
$var wire 12 G" data_in [11:0] $end
$var wire 1 7 fifo0_almost_full $end
$var wire 1 6 fifo1_almost_full $end
$var wire 1 5 fifo2_almost_full $end
$var wire 1 4 fifo3_almost_full $end
$var wire 1 2 fifo_empty $end
$var wire 1 $ valid $end
$var wire 1 ' reset_L $end
$var wire 1 ( push3_synth $end
$var wire 1 * push2_synth $end
$var wire 1 , push1_synth $end
$var wire 1 . push0_synth $end
$var wire 1 0 pop_synth $end
$var wire 12 H" data_out_synth [11:0] $end
$var wire 5 I" cont4_synth [4:0] $end
$var wire 1 = clk $end
$var wire 1 J" _043_ $end
$var wire 1 K" _042_ $end
$var wire 1 L" _041_ $end
$var wire 1 M" _040_ $end
$var wire 1 N" _039_ $end
$var wire 1 O" _038_ $end
$var wire 1 P" _037_ $end
$var wire 1 Q" _036_ $end
$var wire 1 R" _035_ $end
$var wire 1 S" _034_ $end
$var wire 1 T" _033_ $end
$var wire 1 U" _032_ $end
$var wire 1 V" _031_ $end
$var wire 1 W" _030_ $end
$var wire 1 X" _029_ $end
$var wire 1 Y" _028_ $end
$var wire 1 Z" _027_ $end
$var wire 1 [" _026_ $end
$var wire 1 \" _025_ $end
$var wire 1 ]" _024_ $end
$var wire 1 ^" _023_ $end
$var wire 1 _" _022_ $end
$var wire 1 `" _021_ $end
$var wire 1 a" _020_ $end
$var wire 1 b" _019_ $end
$var wire 1 c" _018_ $end
$var wire 1 d" _017_ $end
$var wire 1 e" _016_ $end
$var wire 1 f" _015_ $end
$var wire 1 g" _014_ $end
$var wire 1 h" _013_ $end
$var wire 1 i" _012_ $end
$var wire 1 j" _011_ $end
$var wire 1 k" _010_ $end
$var wire 1 l" _009_ $end
$var wire 1 m" _008_ $end
$var wire 1 n" _007_ $end
$var wire 1 o" _006_ $end
$var wire 1 p" _005_ $end
$var wire 1 q" _004_ $end
$var wire 1 r" _003_ $end
$var wire 1 s" _002_ $end
$var wire 1 t" _001_ $end
$var wire 5 u" _000_ [4:0] $end
$scope module _044_ $end
$var wire 1 v" A $end
$var wire 1 n" Y $end
$upscope $end
$scope module _045_ $end
$var wire 1 2 A $end
$var wire 1 m" Y $end
$upscope $end
$scope module _046_ $end
$var wire 1 w" A $end
$var wire 1 l" Y $end
$upscope $end
$scope module _047_ $end
$var wire 1 x" A $end
$var wire 1 k" Y $end
$upscope $end
$scope module _048_ $end
$var wire 1 y" A $end
$var wire 1 j" Y $end
$upscope $end
$scope module _049_ $end
$var wire 1 z" A $end
$var wire 1 i" Y $end
$upscope $end
$scope module _050_ $end
$var wire 1 {" A $end
$var wire 1 h" Y $end
$upscope $end
$scope module _051_ $end
$var wire 1 |" A $end
$var wire 1 g" Y $end
$upscope $end
$scope module _052_ $end
$var wire 1 }" A $end
$var wire 1 f" Y $end
$upscope $end
$scope module _053_ $end
$var wire 1 ~" A $end
$var wire 1 e" Y $end
$upscope $end
$scope module _054_ $end
$var wire 1 !# A $end
$var wire 1 d" Y $end
$upscope $end
$scope module _055_ $end
$var wire 1 "# A $end
$var wire 1 c" Y $end
$upscope $end
$scope module _056_ $end
$var wire 1 ## A $end
$var wire 1 b" Y $end
$upscope $end
$scope module _057_ $end
$var wire 1 $# A $end
$var wire 1 a" Y $end
$upscope $end
$scope module _058_ $end
$var wire 1 %# A $end
$var wire 1 `" Y $end
$upscope $end
$scope module _059_ $end
$var wire 1 &# A $end
$var wire 1 $ B $end
$var wire 1 _" Y $end
$upscope $end
$scope module _060_ $end
$var wire 1 _" A $end
$var wire 1 ^" Y $end
$upscope $end
$scope module _061_ $end
$var wire 1 $ B $end
$var wire 1 ]" Y $end
$var wire 1 ' A $end
$upscope $end
$scope module _062_ $end
$var wire 1 ]" A $end
$var wire 1 \" Y $end
$upscope $end
$scope module _063_ $end
$var wire 1 '# A $end
$var wire 1 $ B $end
$var wire 1 [" Y $end
$upscope $end
$scope module _064_ $end
$var wire 1 _" B $end
$var wire 1 Z" Y $end
$var wire 1 ' A $end
$upscope $end
$scope module _065_ $end
$var wire 1 [" A $end
$var wire 1 Z" B $end
$var wire 1 (# Y $end
$upscope $end
$scope module _066_ $end
$var wire 1 l" A $end
$var wire 1 _" B $end
$var wire 1 Y" Y $end
$upscope $end
$scope module _067_ $end
$var wire 1 )# A $end
$var wire 1 ^" B $end
$var wire 1 X" Y $end
$upscope $end
$scope module _068_ $end
$var wire 1 l" A $end
$var wire 1 _" B $end
$var wire 1 W" Y $end
$upscope $end
$scope module _069_ $end
$var wire 1 W" B $end
$var wire 1 V" Y $end
$var wire 1 ' A $end
$upscope $end
$scope module _070_ $end
$var wire 1 Y" A $end
$var wire 1 V" B $end
$var wire 1 *# Y $end
$upscope $end
$scope module _071_ $end
$var wire 1 k" A $end
$var wire 1 X" B $end
$var wire 1 U" Y $end
$upscope $end
$scope module _072_ $end
$var wire 1 k" A $end
$var wire 1 X" B $end
$var wire 1 T" Y $end
$upscope $end
$scope module _073_ $end
$var wire 1 T" B $end
$var wire 1 S" Y $end
$var wire 1 ' A $end
$upscope $end
$scope module _074_ $end
$var wire 1 U" A $end
$var wire 1 S" B $end
$var wire 1 +# Y $end
$upscope $end
$scope module _075_ $end
$var wire 1 ,# A $end
$var wire 1 U" B $end
$var wire 1 R" Y $end
$upscope $end
$scope module _076_ $end
$var wire 1 R" A $end
$var wire 1 Q" Y $end
$upscope $end
$scope module _077_ $end
$var wire 1 -# A $end
$var wire 1 U" B $end
$var wire 1 P" Y $end
$upscope $end
$scope module _078_ $end
$var wire 1 P" A $end
$var wire 1 O" Y $end
$upscope $end
$scope module _079_ $end
$var wire 1 O" B $end
$var wire 1 N" Y $end
$var wire 1 ' A $end
$upscope $end
$scope module _080_ $end
$var wire 1 Q" A $end
$var wire 1 N" B $end
$var wire 1 .# Y $end
$upscope $end
$scope module _081_ $end
$var wire 1 j" A $end
$var wire 1 R" B $end
$var wire 1 M" Y $end
$upscope $end
$scope module _082_ $end
$var wire 1 j" A $end
$var wire 1 R" B $end
$var wire 1 L" Y $end
$upscope $end
$scope module _083_ $end
$var wire 1 L" B $end
$var wire 1 K" Y $end
$var wire 1 ' A $end
$upscope $end
$scope module _084_ $end
$var wire 1 M" A $end
$var wire 1 K" B $end
$var wire 1 /# Y $end
$upscope $end
$scope module _085_ $end
$var wire 1 i" A $end
$var wire 1 ]" B $end
$var wire 1 0# Y $end
$upscope $end
$scope module _086_ $end
$var wire 1 h" A $end
$var wire 1 ]" B $end
$var wire 1 1# Y $end
$upscope $end
$scope module _087_ $end
$var wire 1 g" A $end
$var wire 1 ]" B $end
$var wire 1 2# Y $end
$upscope $end
$scope module _088_ $end
$var wire 1 f" A $end
$var wire 1 ]" B $end
$var wire 1 3# Y $end
$upscope $end
$scope module _089_ $end
$var wire 1 e" A $end
$var wire 1 ]" B $end
$var wire 1 4# Y $end
$upscope $end
$scope module _090_ $end
$var wire 1 d" A $end
$var wire 1 ]" B $end
$var wire 1 5# Y $end
$upscope $end
$scope module _091_ $end
$var wire 1 c" A $end
$var wire 1 ]" B $end
$var wire 1 6# Y $end
$upscope $end
$scope module _092_ $end
$var wire 1 b" A $end
$var wire 1 ]" B $end
$var wire 1 7# Y $end
$upscope $end
$scope module _093_ $end
$var wire 1 a" A $end
$var wire 1 ]" B $end
$var wire 1 8# Y $end
$upscope $end
$scope module _094_ $end
$var wire 1 `" A $end
$var wire 1 ]" B $end
$var wire 1 9# Y $end
$upscope $end
$scope module _095_ $end
$var wire 1 :# A $end
$var wire 1 \" B $end
$var wire 1 J" Y $end
$upscope $end
$scope module _096_ $end
$var wire 1 J" A $end
$var wire 1 ;# Y $end
$upscope $end
$scope module _097_ $end
$var wire 1 <# A $end
$var wire 1 \" B $end
$var wire 1 t" Y $end
$upscope $end
$scope module _098_ $end
$var wire 1 t" A $end
$var wire 1 =# Y $end
$upscope $end
$scope module _099_ $end
$var wire 1 n" A $end
$var wire 1 J" B $end
$var wire 1 ( Y $end
$upscope $end
$scope module _100_ $end
$var wire 1 7 A $end
$var wire 1 4 B $end
$var wire 1 s" Y $end
$upscope $end
$scope module _101_ $end
$var wire 1 m" A $end
$var wire 1 s" B $end
$var wire 1 r" Y $end
$upscope $end
$scope module _102_ $end
$var wire 1 6 A $end
$var wire 1 5 B $end
$var wire 1 q" Y $end
$upscope $end
$scope module _103_ $end
$var wire 1 q" B $end
$var wire 1 p" Y $end
$var wire 1 ' A $end
$upscope $end
$scope module _104_ $end
$var wire 1 r" A $end
$var wire 1 p" B $end
$var wire 1 0 Y $end
$upscope $end
$scope module _105_ $end
$var wire 1 n" A $end
$var wire 1 \" B $end
$var wire 1 o" Y $end
$upscope $end
$scope module _106_ $end
$var wire 1 ># A $end
$var wire 1 o" B $end
$var wire 1 . Y $end
$upscope $end
$scope module _107_ $end
$var wire 1 ?# A $end
$var wire 1 t" B $end
$var wire 1 * Y $end
$upscope $end
$scope module _108_ $end
$var wire 1 @# A $end
$var wire 1 J" B $end
$var wire 1 , Y $end
$upscope $end
$scope module _109_ $end
$var wire 1 A# D $end
$var wire 1 = C $end
$var reg 1 B# Q $end
$upscope $end
$scope module _110_ $end
$var wire 1 C# D $end
$var wire 1 = C $end
$var reg 1 D# Q $end
$upscope $end
$scope module _111_ $end
$var wire 1 E# D $end
$var wire 1 = C $end
$var reg 1 F# Q $end
$upscope $end
$scope module _112_ $end
$var wire 1 G# D $end
$var wire 1 = C $end
$var reg 1 H# Q $end
$upscope $end
$scope module _113_ $end
$var wire 1 I# D $end
$var wire 1 = C $end
$var reg 1 J# Q $end
$upscope $end
$upscope $end
$scope module probador $end
$var wire 5 K# cont4 [4:0] $end
$var wire 5 L# cont4_synth [4:0] $end
$var wire 12 M# data_out [11:0] $end
$var wire 12 N# data_out_synth [11:0] $end
$var wire 1 7 fifo0_almost_full $end
$var wire 1 6 fifo1_almost_full $end
$var wire 1 5 fifo2_almost_full $end
$var wire 1 4 fifo3_almost_full $end
$var wire 1 2 fifo_empty $end
$var wire 1 1 pop $end
$var wire 1 0 pop_synth $end
$var wire 1 / push0 $end
$var wire 1 . push0_synth $end
$var wire 1 - push1 $end
$var wire 1 , push1_synth $end
$var wire 1 + push2 $end
$var wire 1 * push2_synth $end
$var wire 1 ) push3 $end
$var wire 1 ( push3_synth $end
$var wire 1 $ valid_entrada $end
$var reg 1 = clk $end
$var reg 12 O# data_in [11:0] $end
$var reg 1 ' reset_L $end
$var reg 3 P# th_fifos_almost_empty [2:0] $end
$var reg 3 Q# th_fifos_almost_full [2:0] $end
$var reg 1 # write $end
$upscope $end
$upscope $end
$scope module DFFSR $end
$var wire 1 R# C $end
$var wire 1 S# D $end
$var wire 1 T# R $end
$var wire 1 U# S $end
$var reg 1 V# Q $end
$upscope $end
$enddefinitions $end
#0
$dumpvars
xV#
zU#
zT#
zS#
zR#
b110 Q#
b1 P#
b0 O#
b0 N#
b0 M#
bx L#
bx K#
xJ#
0I#
xH#
0G#
xF#
0E#
xD#
0C#
xB#
0A#
x@#
x?#
x>#
0=#
x<#
0;#
x:#
09#
08#
07#
06#
05#
04#
03#
02#
01#
00#
0/#
0.#
x-#
x,#
0+#
0*#
x)#
0(#
x'#
x&#
x%#
x$#
x##
x"#
x!#
x~"
x}"
x|"
x{"
xz"
xy"
xx"
xw"
xv"
b0 u"
1t"
1s"
1r"
1q"
1p"
1o"
xn"
0m"
xl"
xk"
xj"
xi"
xh"
xg"
xf"
xe"
xd"
xc"
xb"
xa"
x`"
x_"
x^"
1]"
0\"
x["
1Z"
xY"
xX"
xW"
1V"
xU"
xT"
1S"
xR"
xQ"
xP"
xO"
1N"
xM"
xL"
1K"
1J"
bx I"
b0 H"
bx G"
bx F"
b0 E"
bx D"
b100 C"
bx B"
bx A"
b0 @"
b0 ?"
bx >"
bx ="
0<"
bx ;"
bx :"
09"
08"
bx 7"
bx 6"
05"
04"
b0 3"
b0 2"
b1 1"
b110 0"
bx /"
b0 ."
b0 -"
bx ,"
bx +"
x*"
0)"
bx ("
bx '"
0&"
0%"
1$"
bx #"
bx ""
0!"
b0 ~
b0 }
b1 |
b110 {
zz
bx y
b0 x
b0 w
bx v
bx u
xt
0s
bx r
bx q
0p
0o
1n
bx m
bx l
0k
b0 j
b0 i
b1 h
b110 g
zf
bx e
b0 d
b0 c
bx b
bx a
x`
0_
bx ^
bx ]
0\
0[
1Z
bx Y
bx X
0W
b0 V
b0 U
b1 T
b110 S
zR
bx Q
b0 P
b0 O
bx N
bx M
xL
0K
bx J
bx I
0H
0G
1F
bx E
bx D
0C
b0 B
b0 A
b1 @
b110 ?
z>
0=
bx <
bx ;
b0 :
b0 9
b0 8
07
06
05
04
bx 3
12
01
00
0/
0.
0-
0,
0+
0*
0)
0(
0'
b1 &
b110 %
x$
0#
z"
z!
$end
#200
0O"
1P"
0T"
0L"
0Y"
0W"
0U"
0Q"
0M"
0^"
1X"
1R"
1_"
1["
1n"
1i"
1h"
1g"
1f"
1e"
1d"
1c"
1b"
1a"
1`"
1l"
1k"
1j"
0v"
0z"
0{"
0|"
0}"
0~"
0!#
0"#
0##
0$#
0%#
0:#
0<#
0>#
0?#
0@#
12
0'#
0&#
0)#
0w"
0x"
0-#
0,#
0y"
1F
1Z
1n
1$"
0$
b0 :"
b0 ="
b0 ;"
b0 >"
b0 3
b0 7"
b0 B"
b0 G"
b0 6"
b0 <
b0 D"
b0 K#
0B#
0D#
0F#
0H#
b0 ;
b0 I"
b0 L#
0J#
0L
b0 I
b0 M
b0 J
b0 N
b0 E
b0 D
0`
b0 ]
b0 a
b0 ^
b0 b
b0 Y
b0 X
0t
b0 q
b0 u
b0 r
b0 v
b0 m
b0 l
0*"
b0 '"
b0 +"
b0 ("
b0 ,"
b0 #"
b0 ""
b1000 A"
b1000 Q
b1000 e
b1000 y
b1000 /"
1=
#400
0=
#600
0p"
0Z"
1F
1Z
1n
1$"
12
b0 F"
1'
b1000 /"
b1000 y
b1000 e
b1000 Q
b1000 A"
1=
#800
0=
#1000
12
b1111111111 :
b1111111111 3"
b1111111111 ?"
b1111111111 O#
1#
1=
#1200
0=
#1400
10
0r"
b1111111111 2"
b1111111111 @"
11
1m"
14"
02
b11111111111 :
b11111111111 3"
b11111111111 ?"
b11111111111 O#
b1 6"
b1 ;"
b1 >"
1=
#1600
0=
#1800
1.
0o"
1A#
b1 u"
1(#
10#
11#
12#
13#
14#
15#
16#
17#
18#
b1111111111 8
b1111111111 H"
b1111111111 N#
19#
1\"
0]"
0["
1F
0i"
0h"
0g"
0f"
0e"
0d"
0c"
0b"
0a"
0`"
b11111111111 2"
b11111111111 @"
1/
b0 C"
b1111111111 9
b1111111111 B
b1111111111 O
b1111111111 V
b1111111111 c
b1111111111 j
b1111111111 w
b1111111111 ~
b1111111111 -"
b1111111111 E"
b1111111111 M#
1z"
1{"
1|"
1}"
1~"
1!#
1"#
1##
1$#
1%#
b1 :"
b1 ="
1$
b1111111111 3
b1111111111 7"
b1111111111 B"
b1111111111 G"
b10 ;"
b10 >"
b101111111111 :
b101111111111 3"
b101111111111 ?"
b101111111111 O#
1=
#2000
0=
#2200
1C#
1*#
0A#
b10 u"
0(#
0V"
1Z"
1W"
1,
1^"
b11111111111 8
b11111111111 H"
b11111111111 N#
1;#
0_"
0J"
0.
1Z
1F
1'#
1&#
1-
0/
b11111111111 9
b11111111111 B
b11111111111 O
b11111111111 V
b11111111111 c
b11111111111 j
b11111111111 w
b11111111111 ~
b11111111111 -"
b11111111111 E"
b11111111111 M#
b1 C"
1:#
1>#
1?#
b101111111111 2"
b101111111111 @"
b111111111111 :
b111111111111 3"
b111111111111 ?"
b111111111111 O#
b1 ;
b1 I"
b1 L#
1B#
b1 <
b1 D"
b1 K#
b10 :"
b10 ="
b11111111111 3
b11111111111 7"
b11111111111 B"
b11111111111 G"
b11 ;"
b11 >"
1=
#2400
0=
#2600
0E#
0+#
1A#
1(#
1S"
1C#
b11 u"
1*#
1*
0Z"
0T"
1o"
0;#
b101111111111 8
b101111111111 H"
b101111111111 N#
1=#
0^"
0Y"
1J"
0t"
0.
0,
1_"
1X"
1n
1Z
0n"
0l"
b111111111111 2"
b111111111111 @"
1+
0-
b101111111111 9
b101111111111 B
b101111111111 O
b101111111111 V
b101111111111 c
b101111111111 j
b101111111111 w
b101111111111 ~
b101111111111 -"
b101111111111 E"
b101111111111 M#
b10 C"
1v"
0:#
1<#
0>#
0?#
1@#
0'#
0&#
1)#
1w"
14"
b11 :"
b11 ="
b101111111111 3
b101111111111 7"
b101111111111 B"
b101111111111 G"
b100 ;"
b100 >"
b10 <
b10 D"
b10 K#
0B#
b10 ;
b10 I"
b10 L#
1D#
0#
1=
#2800
0=
#3000
1E#
1+#
0S"
1T"
0A#
0C#
0(#
b100 u"
0*#
0X"
00
1Z"
1Y"
1(
1^"
1r"
b111111111111 8
b111111111111 H"
b111111111111 N#
1;#
0_"
0J"
0*
01
0m"
1$"
1n
1'#
1&#
0<"
08"
12
04"
1)
0+
b111111111111 9
b111111111111 B
b111111111111 O
b111111111111 V
b111111111111 c
b111111111111 j
b111111111111 w
b111111111111 ~
b111111111111 -"
b111111111111 E"
b111111111111 M#
b11 C"
1:#
1>#
1?#
b0 2"
b0 @"
b11 ;
b11 I"
b11 L#
1B#
b11 <
b11 D"
b11 K#
b0 6"
b111111111111 3
b111111111111 7"
b111111111111 B"
b111111111111 G"
b100 :"
b100 ="
1=
#3200
0=
#3400
0G#
0.#
1N"
0(
0C#
1E#
0O"
0;#
0=#
0*#
1V"
b100 u"
1+#
1P"
1J"
1t"
0Z"
00#
01#
02#
03#
04#
05#
06#
07#
08#
b0 8
b0 H"
b0 N#
09#
0Y"
0W"
0U"
0^"
0\"
1X"
1$"
1_"
1]"
1["
1l"
0k"
0)
b0 9
b0 B
b0 O
b0 V
b0 c
b0 j
b0 w
b0 ~
b0 -"
b0 E"
b0 M#
b100 C"
0'#
0&#
0)#
0w"
1x"
12
0$
b100 <
b100 D"
b100 K#
0B#
0D#
b100 ;
b100 I"
b100 L#
1F#
b10000 :
b10000 3"
b10000 ?"
b10000 O#
1#
1=
#3600
0=
#3800
10
0r"
b10000 2"
b10000 @"
11
1m"
14"
02
b11010 :
b11010 3"
b11010 ?"
b11010 O#
b1 6"
b101 ;"
b101 >"
1=
#4000
0=
#4200
1.
0o"
1A#
b10000 8
b10000 H"
b10000 N#
14#
b101 u"
1(#
1\"
0]"
0["
1F
1n"
1i"
1h"
1g"
1f"
1d"
1c"
1b"
1a"
1`"
b11010 2"
b11010 @"
1/
b0 C"
b10000 9
b10000 B
b10000 O
b10000 V
b10000 c
b10000 j
b10000 w
b10000 ~
b10000 -"
b10000 E"
b10000 M#
0v"
0z"
0{"
0|"
0}"
0!#
0"#
0##
0$#
0%#
0:#
0<#
0>#
0?#
0@#
b101 :"
b101 ="
1$
b10000 3
b10000 7"
b10000 B"
b10000 G"
b110 ;"
b110 >"
b100100 :
b100100 3"
b100100 ?"
b100100 O#
1=
#4400
0=
#4600
1C#
1*#
0A#
b110 u"
0(#
0V"
1Z"
1W"
1^"
11#
b11010 8
b11010 H"
b11010 N#
13#
0_"
1F
0h"
0f"
1'#
1&#
1/
b11010 9
b11010 B
b11010 O
b11010 V
b11010 c
b11010 j
b11010 w
b11010 ~
b11010 -"
b11010 E"
b11010 M#
b0 C"
1{"
1}"
b100100 2"
b100100 @"
b101110 :
b101110 3"
b101110 ?"
b101110 O#
b101 ;
b101 I"
b101 L#
1B#
b101 <
b101 D"
b101 K#
b110 :"
b110 ="
b11010 3
b11010 7"
b11010 B"
b11010 G"
b111 ;"
b111 >"
1=
#4800
0=
#5000
0G#
0.#
1N"
1A#
1E#
0O"
1(#
1+#
1P"
1C#
b111 u"
1*#
0Z"
0U"
01#
12#
03#
04#
b100100 8
b100100 H"
b100100 N#
15#
0^"
0Y"
1_"
1X"
1F
1h"
0g"
1f"
1e"
0d"
0l"
b101110 2"
b101110 @"
1/
b100100 9
b100100 B
b100100 O
b100100 V
b100100 c
b100100 j
b100100 w
b100100 ~
b100100 -"
b100100 E"
b100100 M#
b0 C"
0{"
1|"
0}"
0~"
1!#
0'#
0&#
1)#
1w"
b111 :"
b111 ="
b100100 3
b100100 7"
b100100 B"
b100100 G"
b0 ;"
b0 >"
b110 <
b110 D"
b110 K#
0B#
b110 ;
b110 I"
b110 L#
1D#
b111000 :
b111000 3"
b111000 ?"
b111000 O#
1=
#5200
0=
#5400
1G#
1.#
0N"
0E#
1O"
0+#
0P"
1U"
0A#
0C#
0(#
b1000 u"
0*#
0X"
1Z"
1Y"
1^"
11#
b101110 8
b101110 H"
b101110 N#
13#
0_"
1F
0h"
0f"
1'#
1&#
1/
b101110 9
b101110 B
b101110 O
b101110 V
b101110 c
b101110 j
b101110 w
b101110 ~
b101110 -"
b101110 E"
b101110 M#
b0 C"
1{"
1}"
b111000 2"
b111000 @"
b1000010 :
b1000010 3"
b1000010 ?"
b1000010 O#
b111 ;
b111 I"
b111 L#
1B#
b111 <
b111 D"
b111 K#
b0 :"
b0 ="
b101110 3
b101110 7"
b101110 B"
b101110 G"
b1 ;"
b1 >"
1=
#5600
0=
#5800
0I#
0/#
1A#
1(#
1V"
1S"
0C#
0E#
1G#
1K"
0*#
0+#
b1001 u"
1.#
0Z"
0W"
0T"
0L"
01#
02#
b111000 8
b111000 H"
b111000 N#
14#
0^"
0Y"
0U"
0Q"
1_"
1X"
1R"
1F
1h"
1g"
0e"
1l"
1k"
b1000010 2"
b1000010 @"
1/
b111000 9
b111000 B
b111000 O
b111000 V
b111000 c
b111000 j
b111000 w
b111000 ~
b111000 -"
b111000 E"
b111000 M#
b0 C"
0{"
0|"
1~"
0'#
0&#
0)#
0w"
0x"
1-#
1,#
b1 :"
b1 ="
b111000 3
b111000 7"
b111000 B"
b111000 G"
b10 ;"
b10 >"
b1000 <
b1000 D"
b1000 K#
0B#
0D#
0F#
b1000 ;
b1000 I"
b1000 L#
1H#
b1001100 :
b1001100 3"
b1001100 ?"
b1001100 O#
1=
#6000
0=
