proyecto2/demux_4x1/verificacion_demux_4x1.vcd
$date
	Fri Nov 26 19:08:56 2021
$end
$version
	Icarus Verilog
$end
$timescale
	1us
$end
$scope module BUF $end
$var wire 1 ! A $end
$var wire 1 " Y $end
$upscope $end
$scope module BancoPruebas $end
$var wire 1 # valid3 $end
$var wire 1 $ valid2 $end
$var wire 1 % valid1 $end
$var wire 1 & valid0 $end
$var wire 1 ' reset_L $end
$var wire 12 ( data_out_synth_mux [11:0] $end
$var wire 12 ) data_out_mux [11:0] $end
$var wire 12 * data_in3 [11:0] $end
$var wire 12 + data_in2 [11:0] $end
$var wire 12 , data_in1 [11:0] $end
$var wire 12 - data_in0 [11:0] $end
$var wire 1 . clk $end
$scope module demux_4x1_cond $end
$var wire 1 # valid3 $end
$var wire 1 $ valid2 $end
$var wire 1 % valid1 $end
$var wire 1 & valid0 $end
$var wire 1 ' reset_L $end
$var wire 12 / data_in3 [11:0] $end
$var wire 12 0 data_in2 [11:0] $end
$var wire 12 1 data_in1 [11:0] $end
$var wire 12 2 data_in0 [11:0] $end
$var wire 1 . clk $end
$var reg 12 3 data_out_mux [11:0] $end
$upscope $end
$scope module demux_4x1_estruct $end
$var wire 1 # valid3 $end
$var wire 1 $ valid2 $end
$var wire 1 % valid1 $end
$var wire 1 & valid0 $end
$var wire 1 ' reset_L $end
$var wire 12 4 data_out_synth_mux [11:0] $end
$var wire 12 5 data_in3 [11:0] $end
$var wire 12 6 data_in2 [11:0] $end
$var wire 12 7 data_in1 [11:0] $end
$var wire 12 8 data_in0 [11:0] $end
$var wire 1 . clk $end
$var wire 1 9 _146_ $end
$var wire 1 : _145_ $end
$var wire 1 ; _144_ $end
$var wire 1 < _143_ $end
$var wire 1 = _142_ $end
$var wire 1 > _141_ $end
$var wire 1 ? _140_ $end
$var wire 1 @ _139_ $end
$var wire 1 A _138_ $end
$var wire 1 B _137_ $end
$var wire 1 C _136_ $end
$var wire 1 D _135_ $end
$var wire 1 E _134_ $end
$var wire 1 F _133_ $end
$var wire 1 G _132_ $end
$var wire 1 H _131_ $end
$var wire 1 I _130_ $end
$var wire 1 J _129_ $end
$var wire 1 K _128_ $end
$var wire 1 L _127_ $end
$var wire 1 M _126_ $end
$var wire 1 N _125_ $end
$var wire 1 O _124_ $end
$var wire 1 P _123_ $end
$var wire 1 Q _122_ $end
$var wire 1 R _121_ $end
$var wire 1 S _120_ $end
$var wire 1 T _119_ $end
$var wire 1 U _118_ $end
$var wire 1 V _117_ $end
$var wire 1 W _116_ $end
$var wire 1 X _115_ $end
$var wire 1 Y _114_ $end
$var wire 1 Z _113_ $end
$var wire 1 [ _112_ $end
$var wire 1 \ _111_ $end
$var wire 1 ] _110_ $end
$var wire 1 ^ _109_ $end
$var wire 1 _ _108_ $end
$var wire 1 ` _107_ $end
$var wire 1 a _106_ $end
$var wire 1 b _105_ $end
$var wire 1 c _104_ $end
$var wire 1 d _103_ $end
$var wire 1 e _102_ $end
$var wire 1 f _101_ $end
$var wire 1 g _100_ $end
$var wire 1 h _099_ $end
$var wire 1 i _098_ $end
$var wire 1 j _097_ $end
$var wire 1 k _096_ $end
$var wire 1 l _095_ $end
$var wire 1 m _094_ $end
$var wire 1 n _093_ $end
$var wire 1 o _092_ $end
$var wire 1 p _091_ $end
$var wire 1 q _090_ $end
$var wire 1 r _089_ $end
$var wire 1 s _088_ $end
$var wire 1 t _087_ $end
$var wire 1 u _086_ $end
$var wire 1 v _085_ $end
$var wire 1 w _084_ $end
$var wire 1 x _083_ $end
$var wire 1 y _082_ $end
$var wire 1 z _081_ $end
$var wire 1 { _080_ $end
$var wire 1 | _079_ $end
$var wire 1 } _078_ $end
$var wire 1 ~ _077_ $end
$var wire 1 !" _076_ $end
$var wire 1 "" _075_ $end
$var wire 1 #" _074_ $end
$var wire 1 $" _073_ $end
$var wire 1 %" _072_ $end
$var wire 1 &" _071_ $end
$var wire 1 '" _070_ $end
$var wire 1 (" _069_ $end
$var wire 1 )" _068_ $end
$var wire 1 *" _067_ $end
$var wire 1 +" _066_ $end
$var wire 1 ," _065_ $end
$var wire 1 -" _064_ $end
$var wire 1 ." _063_ $end
$var wire 1 /" _062_ $end
$var wire 1 0" _061_ $end
$var wire 1 1" _060_ $end
$var wire 1 2" _059_ $end
$var wire 1 3" _058_ $end
$var wire 1 4" _057_ $end
$var wire 1 5" _056_ $end
$var wire 1 6" _055_ $end
$var wire 1 7" _054_ $end
$var wire 1 8" _053_ $end
$var wire 1 9" _052_ $end
$var wire 1 :" _051_ $end
$var wire 1 ;" _050_ $end
$var wire 1 <" _049_ $end
$var wire 1 =" _048_ $end
$var wire 1 >" _047_ $end
$var wire 1 ?" _046_ $end
$var wire 1 @" _045_ $end
$var wire 1 A" _044_ $end
$var wire 1 B" _043_ $end
$var wire 1 C" _042_ $end
$var wire 1 D" _041_ $end
$var wire 1 E" _040_ $end
$var wire 1 F" _039_ $end
$var wire 1 G" _038_ $end
$var wire 1 H" _037_ $end
$var wire 1 I" _036_ $end
$var wire 1 J" _035_ $end
$var wire 1 K" _034_ $end
$var wire 1 L" _033_ $end
$var wire 1 M" _032_ $end
$var wire 1 N" _031_ $end
$var wire 1 O" _030_ $end
$var wire 1 P" _029_ $end
$var wire 1 Q" _028_ $end
$var wire 1 R" _027_ $end
$var wire 1 S" _026_ $end
$var wire 1 T" _025_ $end
$var wire 1 U" _024_ $end
$var wire 1 V" _023_ $end
$var wire 1 W" _022_ $end
$var wire 1 X" _021_ $end
$var wire 1 Y" _020_ $end
$var wire 1 Z" _019_ $end
$var wire 1 [" _018_ $end
$var wire 1 \" _017_ $end
$var wire 1 ]" _016_ $end
$var wire 1 ^" _015_ $end
$var wire 1 _" _014_ $end
$var wire 1 `" _013_ $end
$var wire 1 a" _012_ $end
$var wire 1 b" _011_ $end
$var wire 1 c" _010_ $end
$var wire 1 d" _009_ $end
$var wire 1 e" _008_ $end
$var wire 1 f" _007_ $end
$var wire 1 g" _006_ $end
$var wire 1 h" _005_ $end
$var wire 1 i" _004_ $end
$var wire 1 j" _003_ $end
$var wire 1 k" _002_ $end
$var wire 1 l" _001_ $end
$var wire 1 m" _000_ $end
$scope module _147_ $end
$var wire 1 n" A $end
$var wire 1 Z Y $end
$upscope $end
$scope module _148_ $end
$var wire 1 o" A $end
$var wire 1 Y Y $end
$upscope $end
$scope module _149_ $end
$var wire 1 p" A $end
$var wire 1 X Y $end
$upscope $end
$scope module _150_ $end
$var wire 1 q" A $end
$var wire 1 W Y $end
$upscope $end
$scope module _151_ $end
$var wire 1 r" A $end
$var wire 1 V Y $end
$upscope $end
$scope module _152_ $end
$var wire 1 s" A $end
$var wire 1 U Y $end
$upscope $end
$scope module _153_ $end
$var wire 1 t" A $end
$var wire 1 T Y $end
$upscope $end
$scope module _154_ $end
$var wire 1 u" A $end
$var wire 1 S Y $end
$upscope $end
$scope module _155_ $end
$var wire 1 v" A $end
$var wire 1 R Y $end
$upscope $end
$scope module _156_ $end
$var wire 1 w" A $end
$var wire 1 Q Y $end
$upscope $end
$scope module _157_ $end
$var wire 1 P Y $end
$var wire 1 % A $end
$upscope $end
$scope module _158_ $end
$var wire 1 x" A $end
$var wire 1 O Y $end
$upscope $end
$scope module _159_ $end
$var wire 1 N Y $end
$var wire 1 # A $end
$upscope $end
$scope module _160_ $end
$var wire 1 y" A $end
$var wire 1 M Y $end
$upscope $end
$scope module _161_ $end
$var wire 1 z" A $end
$var wire 1 L Y $end
$upscope $end
$scope module _162_ $end
$var wire 1 {" A $end
$var wire 1 K Y $end
$upscope $end
$scope module _163_ $end
$var wire 1 |" A $end
$var wire 1 J Y $end
$upscope $end
$scope module _164_ $end
$var wire 1 }" A $end
$var wire 1 I Y $end
$upscope $end
$scope module _165_ $end
$var wire 1 ~" A $end
$var wire 1 H Y $end
$upscope $end
$scope module _166_ $end
$var wire 1 !# A $end
$var wire 1 G Y $end
$upscope $end
$scope module _167_ $end
$var wire 1 "# A $end
$var wire 1 F Y $end
$upscope $end
$scope module _168_ $end
$var wire 1 ## A $end
$var wire 1 E Y $end
$upscope $end
$scope module _169_ $end
$var wire 1 $# A $end
$var wire 1 D Y $end
$upscope $end
$scope module _170_ $end
$var wire 1 %# A $end
$var wire 1 C Y $end
$upscope $end
$scope module _171_ $end
$var wire 1 &# A $end
$var wire 1 B Y $end
$upscope $end
$scope module _172_ $end
$var wire 1 '# A $end
$var wire 1 A Y $end
$upscope $end
$scope module _173_ $end
$var wire 1 P B $end
$var wire 1 @ Y $end
$var wire 1 & A $end
$upscope $end
$scope module _174_ $end
$var wire 1 B A $end
$var wire 1 @ B $end
$var wire 1 ? Y $end
$upscope $end
$scope module _175_ $end
$var wire 1 (# A $end
$var wire 1 > Y $end
$var wire 1 % B $end
$upscope $end
$scope module _176_ $end
$var wire 1 > A $end
$var wire 1 = Y $end
$upscope $end
$scope module _177_ $end
$var wire 1 ? A $end
$var wire 1 = B $end
$var wire 1 < Y $end
$upscope $end
$scope module _178_ $end
$var wire 1 < B $end
$var wire 1 ; Y $end
$var wire 1 $ A $end
$upscope $end
$scope module _179_ $end
$var wire 1 )# A $end
$var wire 1 : Y $end
$var wire 1 $ B $end
$upscope $end
$scope module _180_ $end
$var wire 1 N A $end
$var wire 1 : B $end
$var wire 1 9 Y $end
$upscope $end
$scope module _181_ $end
$var wire 1 ; A $end
$var wire 1 9 B $end
$var wire 1 m" Y $end
$upscope $end
$scope module _182_ $end
$var wire 1 O A $end
$var wire 1 l" Y $end
$var wire 1 # B $end
$upscope $end
$scope module _183_ $end
$var wire 1 l" B $end
$var wire 1 k" Y $end
$var wire 1 ' A $end
$upscope $end
$scope module _184_ $end
$var wire 1 m" A $end
$var wire 1 k" B $end
$var wire 1 *# Y $end
$upscope $end
$scope module _185_ $end
$var wire 1 A A $end
$var wire 1 @ B $end
$var wire 1 j" Y $end
$upscope $end
$scope module _186_ $end
$var wire 1 +# B $end
$var wire 1 i" Y $end
$var wire 1 % A $end
$upscope $end
$scope module _187_ $end
$var wire 1 i" A $end
$var wire 1 h" Y $end
$upscope $end
$scope module _188_ $end
$var wire 1 j" A $end
$var wire 1 h" B $end
$var wire 1 g" Y $end
$upscope $end
$scope module _189_ $end
$var wire 1 g" B $end
$var wire 1 f" Y $end
$var wire 1 $ A $end
$upscope $end
$scope module _190_ $end
$var wire 1 ,# B $end
$var wire 1 e" Y $end
$var wire 1 $ A $end
$upscope $end
$scope module _191_ $end
$var wire 1 N A $end
$var wire 1 e" B $end
$var wire 1 d" Y $end
$upscope $end
$scope module _192_ $end
$var wire 1 f" A $end
$var wire 1 d" B $end
$var wire 1 c" Y $end
$upscope $end
$scope module _193_ $end
$var wire 1 M B $end
$var wire 1 b" Y $end
$var wire 1 # A $end
$upscope $end
$scope module _194_ $end
$var wire 1 b" B $end
$var wire 1 a" Y $end
$var wire 1 ' A $end
$upscope $end
$scope module _195_ $end
$var wire 1 c" A $end
$var wire 1 a" B $end
$var wire 1 -# Y $end
$upscope $end
$scope module _196_ $end
$var wire 1 Z A $end
$var wire 1 @ B $end
$var wire 1 `" Y $end
$upscope $end
$scope module _197_ $end
$var wire 1 .# B $end
$var wire 1 _" Y $end
$var wire 1 % A $end
$upscope $end
$scope module _198_ $end
$var wire 1 _" A $end
$var wire 1 ^" Y $end
$upscope $end
$scope module _199_ $end
$var wire 1 `" A $end
$var wire 1 ^" B $end
$var wire 1 ]" Y $end
$upscope $end
$scope module _200_ $end
$var wire 1 ]" B $end
$var wire 1 \" Y $end
$var wire 1 $ A $end
$upscope $end
$scope module _201_ $end
$var wire 1 /# B $end
$var wire 1 [" Y $end
$var wire 1 $ A $end
$upscope $end
$scope module _202_ $end
$var wire 1 N A $end
$var wire 1 [" B $end
$var wire 1 Z" Y $end
$upscope $end
$scope module _203_ $end
$var wire 1 \" A $end
$var wire 1 Z" B $end
$var wire 1 Y" Y $end
$upscope $end
$scope module _204_ $end
$var wire 1 L B $end
$var wire 1 X" Y $end
$var wire 1 # A $end
$upscope $end
$scope module _205_ $end
$var wire 1 X" B $end
$var wire 1 W" Y $end
$var wire 1 ' A $end
$upscope $end
$scope module _206_ $end
$var wire 1 Y" A $end
$var wire 1 W" B $end
$var wire 1 0# Y $end
$upscope $end
$scope module _207_ $end
$var wire 1 Y A $end
$var wire 1 @ B $end
$var wire 1 V" Y $end
$upscope $end
$scope module _208_ $end
$var wire 1 1# B $end
$var wire 1 U" Y $end
$var wire 1 % A $end
$upscope $end
$scope module _209_ $end
$var wire 1 U" A $end
$var wire 1 T" Y $end
$upscope $end
$scope module _210_ $end
$var wire 1 V" A $end
$var wire 1 T" B $end
$var wire 1 S" Y $end
$upscope $end
$scope module _211_ $end
$var wire 1 S" B $end
$var wire 1 R" Y $end
$var wire 1 $ A $end
$upscope $end
$scope module _212_ $end
$var wire 1 2# B $end
$var wire 1 Q" Y $end
$var wire 1 $ A $end
$upscope $end
$scope module _213_ $end
$var wire 1 N A $end
$var wire 1 Q" B $end
$var wire 1 P" Y $end
$upscope $end
$scope module _214_ $end
$var wire 1 R" A $end
$var wire 1 P" B $end
$var wire 1 O" Y $end
$upscope $end
$scope module _215_ $end
$var wire 1 K B $end
$var wire 1 N" Y $end
$var wire 1 # A $end
$upscope $end
$scope module _216_ $end
$var wire 1 N" B $end
$var wire 1 M" Y $end
$var wire 1 ' A $end
$upscope $end
$scope module _217_ $end
$var wire 1 O" A $end
$var wire 1 M" B $end
$var wire 1 3# Y $end
$upscope $end
$scope module _218_ $end
$var wire 1 X A $end
$var wire 1 @ B $end
$var wire 1 L" Y $end
$upscope $end
$scope module _219_ $end
$var wire 1 4# B $end
$var wire 1 K" Y $end
$var wire 1 % A $end
$upscope $end
$scope module _220_ $end
$var wire 1 K" A $end
$var wire 1 J" Y $end
$upscope $end
$scope module _221_ $end
$var wire 1 L" A $end
$var wire 1 J" B $end
$var wire 1 I" Y $end
$upscope $end
$scope module _222_ $end
$var wire 1 I" B $end
$var wire 1 H" Y $end
$var wire 1 $ A $end
$upscope $end
$scope module _223_ $end
$var wire 1 5# B $end
$var wire 1 G" Y $end
$var wire 1 $ A $end
$upscope $end
$scope module _224_ $end
$var wire 1 N A $end
$var wire 1 G" B $end
$var wire 1 F" Y $end
$upscope $end
$scope module _225_ $end
$var wire 1 H" A $end
$var wire 1 F" B $end
$var wire 1 E" Y $end
$upscope $end
$scope module _226_ $end
$var wire 1 J B $end
$var wire 1 D" Y $end
$var wire 1 # A $end
$upscope $end
$scope module _227_ $end
$var wire 1 D" B $end
$var wire 1 C" Y $end
$var wire 1 ' A $end
$upscope $end
$scope module _228_ $end
$var wire 1 E" A $end
$var wire 1 C" B $end
$var wire 1 6# Y $end
$upscope $end
$scope module _229_ $end
$var wire 1 W A $end
$var wire 1 @ B $end
$var wire 1 B" Y $end
$upscope $end
$scope module _230_ $end
$var wire 1 7# B $end
$var wire 1 A" Y $end
$var wire 1 % A $end
$upscope $end
$scope module _231_ $end
$var wire 1 A" A $end
$var wire 1 @" Y $end
$upscope $end
$scope module _232_ $end
$var wire 1 B" A $end
$var wire 1 @" B $end
$var wire 1 ?" Y $end
$upscope $end
$scope module _233_ $end
$var wire 1 ?" B $end
$var wire 1 >" Y $end
$var wire 1 $ A $end
$upscope $end
$scope module _234_ $end
$var wire 1 8# B $end
$var wire 1 =" Y $end
$var wire 1 $ A $end
$upscope $end
$scope module _235_ $end
$var wire 1 N A $end
$var wire 1 =" B $end
$var wire 1 <" Y $end
$upscope $end
$scope module _236_ $end
$var wire 1 >" A $end
$var wire 1 <" B $end
$var wire 1 ;" Y $end
$upscope $end
$scope module _237_ $end
$var wire 1 I B $end
$var wire 1 :" Y $end
$var wire 1 # A $end
$upscope $end
$scope module _238_ $end
$var wire 1 :" B $end
$var wire 1 9" Y $end
$var wire 1 ' A $end
$upscope $end
$scope module _239_ $end
$var wire 1 ;" A $end
$var wire 1 9" B $end
$var wire 1 9# Y $end
$upscope $end
$scope module _240_ $end
$var wire 1 V A $end
$var wire 1 @ B $end
$var wire 1 8" Y $end
$upscope $end
$scope module _241_ $end
$var wire 1 :# B $end
$var wire 1 7" Y $end
$var wire 1 % A $end
$upscope $end
$scope module _242_ $end
$var wire 1 7" A $end
$var wire 1 6" Y $end
$upscope $end
$scope module _243_ $end
$var wire 1 8" A $end
$var wire 1 6" B $end
$var wire 1 5" Y $end
$upscope $end
$scope module _244_ $end
$var wire 1 5" B $end
$var wire 1 4" Y $end
$var wire 1 $ A $end
$upscope $end
$scope module _245_ $end
$var wire 1 ;# B $end
$var wire 1 3" Y $end
$var wire 1 $ A $end
$upscope $end
$scope module _246_ $end
$var wire 1 N A $end
$var wire 1 3" B $end
$var wire 1 2" Y $end
$upscope $end
$scope module _247_ $end
$var wire 1 4" A $end
$var wire 1 2" B $end
$var wire 1 1" Y $end
$upscope $end
$scope module _248_ $end
$var wire 1 H B $end
$var wire 1 0" Y $end
$var wire 1 # A $end
$upscope $end
$scope module _249_ $end
$var wire 1 0" B $end
$var wire 1 /" Y $end
$var wire 1 ' A $end
$upscope $end
$scope module _250_ $end
$var wire 1 1" A $end
$var wire 1 /" B $end
$var wire 1 <# Y $end
$upscope $end
$scope module _251_ $end
$var wire 1 U A $end
$var wire 1 @ B $end
$var wire 1 ." Y $end
$upscope $end
$scope module _252_ $end
$var wire 1 =# B $end
$var wire 1 -" Y $end
$var wire 1 % A $end
$upscope $end
$scope module _253_ $end
$var wire 1 -" A $end
$var wire 1 ," Y $end
$upscope $end
$scope module _254_ $end
$var wire 1 ." A $end
$var wire 1 ," B $end
$var wire 1 +" Y $end
$upscope $end
$scope module _255_ $end
$var wire 1 +" B $end
$var wire 1 *" Y $end
$var wire 1 $ A $end
$upscope $end
$scope module _256_ $end
$var wire 1 ># B $end
$var wire 1 )" Y $end
$var wire 1 $ A $end
$upscope $end
$scope module _257_ $end
$var wire 1 N A $end
$var wire 1 )" B $end
$var wire 1 (" Y $end
$upscope $end
$scope module _258_ $end
$var wire 1 *" A $end
$var wire 1 (" B $end
$var wire 1 '" Y $end
$upscope $end
$scope module _259_ $end
$var wire 1 G B $end
$var wire 1 &" Y $end
$var wire 1 # A $end
$upscope $end
$scope module _260_ $end
$var wire 1 &" B $end
$var wire 1 %" Y $end
$var wire 1 ' A $end
$upscope $end
$scope module _261_ $end
$var wire 1 '" A $end
$var wire 1 %" B $end
$var wire 1 ?# Y $end
$upscope $end
$scope module _262_ $end
$var wire 1 T A $end
$var wire 1 @ B $end
$var wire 1 $" Y $end
$upscope $end
$scope module _263_ $end
$var wire 1 @# B $end
$var wire 1 #" Y $end
$var wire 1 % A $end
$upscope $end
$scope module _264_ $end
$var wire 1 #" A $end
$var wire 1 "" Y $end
$upscope $end
$scope module _265_ $end
$var wire 1 $" A $end
$var wire 1 "" B $end
$var wire 1 !" Y $end
$upscope $end
$scope module _266_ $end
$var wire 1 !" B $end
$var wire 1 ~ Y $end
$var wire 1 $ A $end
$upscope $end
$scope module _267_ $end
$var wire 1 A# B $end
$var wire 1 } Y $end
$var wire 1 $ A $end
$upscope $end
$scope module _268_ $end
$var wire 1 N A $end
$var wire 1 } B $end
$var wire 1 | Y $end
$upscope $end
$scope module _269_ $end
$var wire 1 ~ A $end
$var wire 1 | B $end
$var wire 1 { Y $end
$upscope $end
$scope module _270_ $end
$var wire 1 F B $end
$var wire 1 z Y $end
$var wire 1 # A $end
$upscope $end
$scope module _271_ $end
$var wire 1 z B $end
$var wire 1 y Y $end
$var wire 1 ' A $end
$upscope $end
$scope module _272_ $end
$var wire 1 { A $end
$var wire 1 y B $end
$var wire 1 B# Y $end
$upscope $end
$scope module _273_ $end
$var wire 1 S A $end
$var wire 1 @ B $end
$var wire 1 x Y $end
$upscope $end
$scope module _274_ $end
$var wire 1 C# B $end
$var wire 1 w Y $end
$var wire 1 % A $end
$upscope $end
$scope module _275_ $end
$var wire 1 w A $end
$var wire 1 v Y $end
$upscope $end
$scope module _276_ $end
$var wire 1 x A $end
$var wire 1 v B $end
$var wire 1 u Y $end
$upscope $end
$scope module _277_ $end
$var wire 1 u B $end
$var wire 1 t Y $end
$var wire 1 $ A $end
$upscope $end
$scope module _278_ $end
$var wire 1 D# B $end
$var wire 1 s Y $end
$var wire 1 $ A $end
$upscope $end
$scope module _279_ $end
$var wire 1 N A $end
$var wire 1 s B $end
$var wire 1 r Y $end
$upscope $end
$scope module _280_ $end
$var wire 1 t A $end
$var wire 1 r B $end
$var wire 1 q Y $end
$upscope $end
$scope module _281_ $end
$var wire 1 E B $end
$var wire 1 p Y $end
$var wire 1 # A $end
$upscope $end
$scope module _282_ $end
$var wire 1 p B $end
$var wire 1 o Y $end
$var wire 1 ' A $end
$upscope $end
$scope module _283_ $end
$var wire 1 q A $end
$var wire 1 o B $end
$var wire 1 E# Y $end
$upscope $end
$scope module _284_ $end
$var wire 1 R A $end
$var wire 1 @ B $end
$var wire 1 n Y $end
$upscope $end
$scope module _285_ $end
$var wire 1 F# B $end
$var wire 1 m Y $end
$var wire 1 % A $end
$upscope $end
$scope module _286_ $end
$var wire 1 m A $end
$var wire 1 l Y $end
$upscope $end
$scope module _287_ $end
$var wire 1 n A $end
$var wire 1 l B $end
$var wire 1 k Y $end
$upscope $end
$scope module _288_ $end
$var wire 1 k B $end
$var wire 1 j Y $end
$var wire 1 $ A $end
$upscope $end
$scope module _289_ $end
$var wire 1 G# B $end
$var wire 1 i Y $end
$var wire 1 $ A $end
$upscope $end
$scope module _290_ $end
$var wire 1 N A $end
$var wire 1 i B $end
$var wire 1 h Y $end
$upscope $end
$scope module _291_ $end
$var wire 1 j A $end
$var wire 1 h B $end
$var wire 1 g Y $end
$upscope $end
$scope module _292_ $end
$var wire 1 D B $end
$var wire 1 f Y $end
$var wire 1 # A $end
$upscope $end
$scope module _293_ $end
$var wire 1 f B $end
$var wire 1 e Y $end
$var wire 1 ' A $end
$upscope $end
$scope module _294_ $end
$var wire 1 g A $end
$var wire 1 e B $end
$var wire 1 H# Y $end
$upscope $end
$scope module _295_ $end
$var wire 1 Q A $end
$var wire 1 @ B $end
$var wire 1 d Y $end
$upscope $end
$scope module _296_ $end
$var wire 1 I# B $end
$var wire 1 c Y $end
$var wire 1 % A $end
$upscope $end
$scope module _297_ $end
$var wire 1 c A $end
$var wire 1 b Y $end
$upscope $end
$scope module _298_ $end
$var wire 1 d A $end
$var wire 1 b B $end
$var wire 1 a Y $end
$upscope $end
$scope module _299_ $end
$var wire 1 a B $end
$var wire 1 ` Y $end
$var wire 1 $ A $end
$upscope $end
$scope module _300_ $end
$var wire 1 J# B $end
$var wire 1 _ Y $end
$var wire 1 $ A $end
$upscope $end
$scope module _301_ $end
$var wire 1 N A $end
$var wire 1 _ B $end
$var wire 1 ^ Y $end
$upscope $end
$scope module _302_ $end
$var wire 1 ` A $end
$var wire 1 ^ B $end
$var wire 1 ] Y $end
$upscope $end
$scope module _303_ $end
$var wire 1 C B $end
$var wire 1 \ Y $end
$var wire 1 # A $end
$upscope $end
$scope module _304_ $end
$var wire 1 \ B $end
$var wire 1 [ Y $end
$var wire 1 ' A $end
$upscope $end
$scope module _305_ $end
$var wire 1 ] A $end
$var wire 1 [ B $end
$var wire 1 K# Y $end
$upscope $end
$upscope $end
$scope module probador $end
$var wire 12 L# data_out_mux [11:0] $end
$var wire 12 M# data_out_synth_mux [11:0] $end
$var reg 1 . clk $end
$var reg 12 N# data_in0 [11:0] $end
$var reg 12 O# data_in1 [11:0] $end
$var reg 12 P# data_in2 [11:0] $end
$var reg 12 Q# data_in3 [11:0] $end
$var reg 1 ' reset_L $end
$var reg 1 & valid0 $end
$var reg 1 % valid1 $end
$var reg 1 $ valid2 $end
$var reg 1 # valid3 $end
$upscope $end
$upscope $end
$scope module DFF $end
$var wire 1 R# C $end
$var wire 1 S# D $end
$var reg 1 T# Q $end
$upscope $end
$scope module DFFSR $end
$var wire 1 U# C $end
$var wire 1 V# D $end
$var wire 1 W# R $end
$var wire 1 X# S $end
$var reg 1 Y# Q $end
$upscope $end
$enddefinitions $end
#0
$dumpvars
xY#
zX#
zW#
zV#
zU#
xT#
zS#
zR#
b0 Q#
b0 P#
b0 O#
b0 N#
b0 M#
b0 L#
0K#
0J#
0I#
0H#
0G#
0F#
0E#
0D#
0C#
0B#
0A#
0@#
0?#
0>#
0=#
0<#
0;#
0:#
09#
08#
07#
06#
05#
04#
03#
02#
01#
00#
0/#
0.#
0-#
0,#
0+#
0*#
0)#
0(#
0'#
0&#
0%#
0$#
0##
0"#
0!#
0~"
0}"
0|"
0{"
0z"
0y"
0x"
0w"
0v"
0u"
0t"
0s"
0r"
0q"
0p"
0o"
0n"
1m"
1l"
1k"
0j"
1i"
0h"
1g"
0f"
1e"
0d"
1c"
1b"
1a"
0`"
1_"
0^"
1]"
0\"
1["
0Z"
1Y"
1X"
1W"
0V"
1U"
0T"
1S"
0R"
1Q"
0P"
1O"
1N"
1M"
0L"
1K"
0J"
1I"
0H"
1G"
0F"
1E"
1D"
1C"
0B"
1A"
0@"
1?"
0>"
1="
0<"
1;"
1:"
19"
08"
17"
06"
15"
04"
13"
02"
11"
10"
1/"
0."
1-"
0,"
1+"
0*"
1)"
0("
1'"
1&"
1%"
0$"
1#"
0""
1!"
0~
1}
0|
1{
1z
1y
0x
1w
0v
1u
0t
1s
0r
1q
1p
1o
0n
1m
0l
1k
0j
1i
0h
1g
1f
1e
0d
1c
0b
1a
0`
1_
0^
1]
1\
1[
1Z
1Y
1X
1W
1V
1U
1T
1S
1R
1Q
1P
1O
1N
1M
1L
1K
1J
1I
1H
1G
1F
1E
1D
1C
1B
1A
1@
0?
1>
0=
1<
0;
1:
09
b0 8
b0 7
b0 6
b0 5
b0 4
b0 3
b0 2
b0 1
b0 0
b0 /
0.
b0 -
b0 ,
b0 +
b0 *
b0 )
b0 (
0'
0&
0%
0$
0#
z"
z!
$end
#200
1.
#400
0.
#600
0[
0e
0o
0y
0%"
0/"
09"
0C"
0M"
0W"
0a"
0k"
1'
1.
#800
0.
#1000
0C
0D
0F
0G
0H
0J
0K
0L
0O
0A
0Q
0S
0U
0W
0Y
1%#
1$#
1"#
1!#
1~"
1|"
1{"
1z"
1x"
1J#
1G#
1>#
1;#
12#
1/#
1I#
1C#
1@#
1=#
17#
14#
11#
1+#
1(#
1'#
1w"
1u"
1s"
1q"
1o"
b110111011101 *
b110111011101 /
b110111011101 5
b110111011101 Q#
b110011001100 +
b110011001100 0
b110011001100 6
b110011001100 P#
b101110111011 ,
b101110111011 1
b101110111011 7
b101110111011 O#
b101010101010 -
b101010101010 2
b101010101010 8
b101010101010 N#
1.
#1200
0.
#1400
1-#
13#
19#
1?#
1E#
b101010101010 (
b101010101010 4
b101010101010 M#
1K#
0c"
0O"
0;"
0'"
0q
0]
1f"
1R"
1>"
1*"
1t
1`
0g"
0S"
0?"
0+"
0u
0a
1j"
1V"
1B"
1."
1x
1d
0@
b101010101010 )
b101010101010 3
b101010101010 L#
1&
1.
#1600
0.
#1800
1B#
16#
b101110111011 (
b101110111011 4
b101110111011 M#
1*#
0{
0E"
0m"
1~
1H"
1;
0!"
0I"
0<
0j"
0V"
0B"
0."
0x
0d
1b
1v
1""
1,"
1@"
1J"
1T"
1h"
1=
0c
0w
0#"
0-"
0A"
0K"
0U"
0i"
0>
1@
0P
b101110111011 )
b101110111011 3
b101110111011 L#
1%
0&
1.
#2000
0.
#2200
1H#
1<#
10#
1K#
0g
0E#
0B#
1?#
01"
09#
06#
13#
0Y"
0-#
b110011001100 (
b110011001100 4
b110011001100 M#
0*#
1a
1u
1!"
1+"
1?"
1I"
1S"
1g"
1<
1^
0]
1h
1q
1{
1("
0'"
12"
1;"
1E"
1P"
0O"
1Z"
1c"
1m"
0b
0v
0""
0,"
0@"
0J"
0T"
0h"
0=
0_
0`
0i
0t
0~
0)"
0*"
03"
0>"
0H"
0Q"
0R"
0["
0f"
0;
1c
1w
1#"
1-"
1A"
1K"
1U"
1i"
1>
1P
b110011001100 )
b110011001100 3
b110011001100 L#
1$
0%
1.
#2400
0.
#2600
1*#
16#
b110111011101 (
b110111011101 4
b110111011101 M#
1B#
0m"
0c"
0E"
0;"
0{
0q
1o
19"
1a"
19
1d"
1F"
1<"
1|
1r
0p
0:"
0b"
1_
1i
1)"
13"
1Q"
1["
0N
b110111011101 )
b110111011101 3
b110111011101 L#
1#
0$
1.
#2800
0.
#3000
0*#
00#
03#
06#
0<#
0?#
0B#
0H#
b0 (
b0 4
b0 M#
0K#
1m"
1c"
1Y"
1O"
1E"
1;"
11"
1'"
1{
1q
1g
1]
0o
09"
0a"
09
0d"
0Z"
0P"
0F"
0<"
02"
0("
0|
0r
0h
0^
1p
1:"
1b"
1N
b0 )
b0 3
b0 L#
0#
1.
